[
  {
    "id": 1,
    "code": "asd",
    "description": "test",
    "name": "Bob",
    "type": "left",
    "createdOn": "2019-01-19T21:30:06+01:00"
  },
  {
    "id": 7,
    "code": "asd",
    "description": "test",
    "name": "Jon",
    "type": "left",
    "createdOn": "2018-06-19T21:30:06+02:00"
  },
  {
    "id": 2,
    "code": "asd",
    "description": "test",
    "name": "Charlie",
    "type": "left",
    "createdOn": "2019-02-19T21:30:06+01:00"
  },
  {
    "id": 3,
    "code": "asd",
    "description": "test",
    "name": "Dave",
    "type": "left",
    "createdOn": "2018-11-19T21:30:06+01:00"
  },
  {
    "id": 1,
    "code": "asd",
    "description": "test",
    "name": "Bob",
    "type": "left",
    "createdOn": "2019-02-19T21:30:06+01:00"
  },
  {
    "id": 4,
    "code": "asd",
    "description": "test",
    "name": "Alice",
    "type": "right",
    "createdOn": "2018-11-19T21:30:06+01:00"
  },
  {
    "id": 5,
    "code": "asd",
    "description": "test",
    "name": "Eve",
    "type": "right",
    "createdOn": "2018-09-19T21:30:06+02:00"
  },
  {
    "id": 6,
    "code": "asd",
    "description": "test",
    "name": "Peggy",
    "type": "right",
    "createdOn": "2019-01-19T21:30:06+01:00"
  }
]